LAB05/Lab5test/lab5.vcd
$date
	Sun May 22 13:04:26 2022
$end
$version
	Icarus Verilog
$end
$timescale
	1ps
$end
$scope module testbench $end
$var reg 1 ! clk $end
$var reg 1 " rst_n $end
$var integer 32 # count [31:0] $end
$var integer 32 $ fp_w [31:0] $end
$scope module CPU $end
$var wire 1 % IFID_Flush $end
$var wire 32 & Imm_4 [31:0] $end
$var wire 1 ' PCSrc $end
$var wire 1 ! clk_i $end
$var wire 1 ( debug $end
$var wire 1 " rst_i $end
$var wire 2 ) tmp [1:0] $end
$var wire 32 * instr [31:0] $end
$var wire 1 + WriteBackB $end
$var wire 1 , WriteBackA $end
$var wire 4 - WB_i [3:0] $end
$var wire 32 . ShiftLeft1_o [31:0] $end
$var wire 1 / RegWrite $end
$var wire 32 0 RTdata_o [31:0] $end
$var wire 32 1 RSdata_o [31:0] $end
$var wire 1 2 PC_write $end
$var wire 32 3 PC_o [31:0] $end
$var wire 32 4 PC_i [31:0] $end
$var wire 32 5 PC_Add_Immediate [31:0] $end
$var wire 32 6 PC_Add4 [31:0] $end
$var wire 1 7 MemWrite $end
$var wire 1 8 MemRead $end
$var wire 4 9 MUX_control_WB_o [3:0] $end
$var wire 2 : MUX_control_Mem_o [1:0] $end
$var wire 3 ; MUX_control_Exe_o [2:0] $end
$var wire 32 < MUX_MemtoReg_o [31:0] $end
$var wire 32 = MUXMemtoReg_o [31:0] $end
$var wire 1 > MUXControl $end
$var wire 4 ? MEMWB_WB_o [3:0] $end
$var wire 5 @ MEMWB_RD_addr_o [4:0] $end
$var wire 32 A MEMWB_PC_Add4_o [31:0] $end
$var wire 32 B MEMWB_DM_o [31:0] $end
$var wire 32 C MEMWB_ALUresult_o [31:0] $end
$var wire 1 D Jump $end
$var wire 32 E Imm_Gen_o [31:0] $end
$var wire 1 F IFID_Write $end
$var wire 32 G IFID_PC_o [31:0] $end
$var wire 32 H IFID_PC_Add4_o [31:0] $end
$var wire 32 I IFID_Instr_o [31:0] $end
$var wire 4 J IDEXE_WB_o [3:0] $end
$var wire 32 K IDEXE_RTdata_o [31:0] $end
$var wire 32 L IDEXE_RSdata_o [31:0] $end
$var wire 5 M IDEXE_RS2_addr_o [4:0] $end
$var wire 5 N IDEXE_RS1_addr_o [4:0] $end
$var wire 5 O IDEXE_RD_addr_o [4:0] $end
$var wire 32 P IDEXE_PC_add4_o [31:0] $end
$var wire 2 Q IDEXE_Mem_o [1:0] $end
$var wire 32 R IDEXE_Instr_o [31:0] $end
$var wire 4 S IDEXE_Instr_30_14_12_o [3:0] $end
$var wire 32 T IDEXE_ImmGen_o [31:0] $end
$var wire 3 U IDEXE_Exe_o [2:0] $end
$var wire 2 V ForwardB [1:0] $end
$var wire 2 W ForwardA [1:0] $end
$var wire 1 X EXEMEM_Zero_o $end
$var wire 4 Y EXEMEM_WB_o [3:0] $end
$var wire 32 Z EXEMEM_RTdata_o [31:0] $end
$var wire 5 [ EXEMEM_RD_addr_o [4:0] $end
$var wire 32 \ EXEMEM_PC_Add4_o [31:0] $end
$var wire 2 ] EXEMEM_Mem_o [1:0] $end
$var wire 32 ^ EXEMEM_Instr_o [31:0] $end
$var wire 32 _ EXEMEM_ALUResult_o [31:0] $end
$var wire 32 ` DataMem_o [31:0] $end
$var wire 1 a Branch_zero $end
$var wire 1 b Branch $end
$var wire 1 c ALU_zero $end
$var wire 4 d ALU_Ctrl_o [3:0] $end
$var wire 32 e ALUSrc2_3to1_o [31:0] $end
$var wire 32 f ALUSrc2_2to1_o [31:0] $end
$var wire 32 g ALUSrc1_3to1_o [31:0] $end
$var wire 1 h ALUSrc $end
$var wire 32 i ALUResult [31:0] $end
$var wire 2 j ALUOp [1:0] $end
$scope module ALU_Ctrl $end
$var wire 2 k ALUOp [1:0] $end
$var wire 4 l instr [3:0] $end
$var reg 4 m ALU_Ctrl_o [3:0] $end
$upscope $end
$scope module Branch_Adder $end
$var wire 32 n sum_o [31:0] $end
$var wire 32 o src2_i [31:0] $end
$var wire 32 p src1_i [31:0] $end
$upscope $end
$scope module Data_Memory $end
$var wire 1 q MemRead_i $end
$var wire 1 r MemWrite_i $end
$var wire 1 ! clk_i $end
$var wire 32 s data_o [31:0] $end
$var wire 32 t data_i [31:0] $end
$var wire 32 u addr_i [31:0] $end
$var integer 32 v i [31:0] $end
$upscope $end
$scope module Decoder $end
$var wire 1 , WriteBackA $end
$var wire 1 + WriteBackB $end
$var wire 7 w opcode [6:0] $end
$var wire 32 x instr_i [31:0] $end
$var wire 1 / RegWrite $end
$var wire 1 7 MemWrite $end
$var wire 1 8 MemRead $end
$var wire 1 D Jump $end
$var wire 1 b Branch $end
$var wire 1 h ALUSrc $end
$var wire 2 y ALUOp [1:0] $end
$var reg 1 b temp_B $end
$var reg 1 D temp_J $end
$var reg 1 8 temp_MR $end
$var reg 1 7 temp_MW $end
$var reg 1 / temp_Reg $end
$var reg 1 h temp_Src $end
$var reg 1 z temp_WB0 $end
$var reg 1 { temp_WB1 $end
$upscope $end
$scope module EXEtoMEM $end
$var wire 1 ! clk_i $end
$var wire 1 " rst_i $end
$var wire 1 c zero_i $end
$var wire 32 | rtdata_i [31:0] $end
$var wire 32 } pc_add4_i [31:0] $end
$var wire 32 ~ instr_i [31:0] $end
$var wire 32 !" alu_ans_i [31:0] $end
$var wire 5 "" WBreg_i [4:0] $end
$var wire 4 #" WB_i [3:0] $end
$var wire 2 $" Mem_i [1:0] $end
$var reg 2 %" Mem_o [1:0] $end
$var reg 4 &" WB_o [3:0] $end
$var reg 5 '" WBreg_o [4:0] $end
$var reg 32 (" alu_ans_o [31:0] $end
$var reg 32 )" instr_o [31:0] $end
$var reg 32 *" pc_add4_o [31:0] $end
$var reg 32 +" rtdata_o [31:0] $end
$var reg 1 X zero_o $end
$upscope $end
$scope module FWUnit $end
$var wire 5 ," EXEMEM_RD [4:0] $end
$var wire 1 -" EXEMEM_RegWrite $end
$var wire 1 ." MEMWB_RegWrite $end
$var wire 5 /" MEMWB_RD [4:0] $end
$var wire 5 0" IDEXE_RS2 [4:0] $end
$var wire 5 1" IDEXE_RS1 [4:0] $end
$var reg 2 2" ForwardA [1:0] $end
$var reg 2 3" ForwardB [1:0] $end
$upscope $end
$scope module Hazard_detection_obj $end
$var wire 1 4" IDEXE_memRead $end
$var wire 5 5" IFID_regRs [4:0] $end
$var wire 5 6" IFID_regRt [4:0] $end
$var wire 5 7" IDEXE_regRd [4:0] $end
$var reg 1 F IFID_write $end
$var reg 1 2 PC_write $end
$var reg 1 > control_output_select $end
$upscope $end
$scope module IDtoEXE $end
$var wire 5 8" RS1_i [4:0] $end
$var wire 5 9" RS2_i [4:0] $end
$var wire 5 :" WBreg_i [4:0] $end
$var wire 4 ;" alu_ctrl_instr [3:0] $end
$var wire 1 ! clk_i $end
$var wire 1 " rst_i $end
$var wire 32 <" pc_add4_i [31:0] $end
$var wire 32 =" instr_i [31:0] $end
$var wire 32 >" immgen_i [31:0] $end
$var wire 32 ?" data2_i [31:0] $end
$var wire 32 @" data1_i [31:0] $end
$var wire 4 A" WB_i [3:0] $end
$var wire 2 B" Mem_i [1:0] $end
$var wire 3 C" Exe_i [2:0] $end
$var reg 3 D" Exe_o [2:0] $end
$var reg 2 E" Mem_o [1:0] $end
$var reg 5 F" RS1_o [4:0] $end
$var reg 5 G" RS2_o [4:0] $end
$var reg 4 H" WB_o [3:0] $end
$var reg 5 I" WBreg_o [4:0] $end
$var reg 4 J" alu_ctrl_input [3:0] $end
$var reg 32 K" data1_o [31:0] $end
$var reg 32 L" data2_o [31:0] $end
$var reg 32 M" immgen_o [31:0] $end
$var reg 32 N" instr_o [31:0] $end
$var reg 32 O" pc_add4_o [31:0] $end
$upscope $end
$scope module IFtoID $end
$var wire 1 F IFID_write $end
$var wire 1 ! clk_i $end
$var wire 1 % flush $end
$var wire 1 " rst_i $end
$var wire 32 P" pc_add4_i [31:0] $end
$var wire 32 Q" instr_i [31:0] $end
$var wire 32 R" address_i [31:0] $end
$var reg 32 S" address_o [31:0] $end
$var reg 32 T" instr_o [31:0] $end
$var reg 32 U" pc_add4_o [31:0] $end
$upscope $end
$scope module IM $end
$var wire 32 V" instr_o [31:0] $end
$var wire 32 W" addr_i [31:0] $end
$var integer 32 X" i [31:0] $end
$upscope $end
$scope module ImmGen $end
$var wire 32 Y" instr_i [31:0] $end
$var reg 32 Z" Imm_Gen_o [31:0] $end
$upscope $end
$scope module MEMtoWB $end
$var wire 32 [" DM_i [31:0] $end
$var wire 4 \" WB_i [3:0] $end
$var wire 5 ]" WBreg_i [4:0] $end
$var wire 32 ^" alu_ans_i [31:0] $end
$var wire 1 ! clk_i $end
$var wire 32 _" pc_add4_i [31:0] $end
$var wire 1 " rst_i $end
$var reg 32 `" DM_o [31:0] $end
$var reg 4 a" WB_o [3:0] $end
$var reg 5 b" WBreg_o [4:0] $end
$var reg 32 c" alu_ans_o [31:0] $end
$var reg 32 d" pc_add4_o [31:0] $end
$upscope $end
$scope module MUX_ALUSrc $end
$var wire 32 e" data1_i [31:0] $end
$var wire 1 f" select_i $end
$var wire 32 g" data_o [31:0] $end
$var wire 32 h" data0_i [31:0] $end
$upscope $end
$scope module MUX_ALU_src1 $end
$var wire 32 i" data0_i [31:0] $end
$var wire 32 j" data2_i [31:0] $end
$var wire 2 k" select_i [1:0] $end
$var wire 32 l" data1_i [31:0] $end
$var reg 32 m" data_o [31:0] $end
$upscope $end
$scope module MUX_ALU_src2 $end
$var wire 32 n" data0_i [31:0] $end
$var wire 32 o" data2_i [31:0] $end
$var wire 2 p" select_i [1:0] $end
$var wire 32 q" data1_i [31:0] $end
$var reg 32 r" data_o [31:0] $end
$upscope $end
$scope module MUX_MemtoReg $end
$var wire 32 s" data0_i [31:0] $end
$var wire 32 t" data1_i [31:0] $end
$var wire 1 u" select_i $end
$var wire 32 v" data_o [31:0] $end
$upscope $end
$scope module MUX_PCSrc $end
$var wire 32 w" data1_i [31:0] $end
$var wire 1 ' select_i $end
$var wire 32 x" data_o [31:0] $end
$var wire 32 y" data0_i [31:0] $end
$upscope $end
$scope module MUX_control $end
$var wire 3 z" Exe_i [2:0] $end
$var wire 2 {" Mem_i [1:0] $end
$var wire 4 |" WB_i [3:0] $end
$var wire 1 > hazard_control $end
$var reg 3 }" Exe_o [2:0] $end
$var reg 2 ~" Mem_o [1:0] $end
$var reg 4 !# WB_o [3:0] $end
$upscope $end
$scope module MUX_jump $end
$var wire 32 "# data0_i [31:0] $end
$var wire 32 ## data1_i [31:0] $end
$var wire 1 $# select_i $end
$var wire 32 %# data_o [31:0] $end
$upscope $end
$scope module PC $end
$var wire 1 2 PCWrite $end
$var wire 1 ! clk_i $end
$var wire 32 &# pc_i [31:0] $end
$var wire 1 " rst_i $end
$var reg 32 '# pc_o [31:0] $end
$upscope $end
$scope module PC_plus_4_Adder $end
$var wire 32 (# src1_i [31:0] $end
$var wire 32 )# src2_i [31:0] $end
$var wire 32 *# sum_o [31:0] $end
$upscope $end
$scope module RF $end
$var wire 5 +# RDaddr_i [4:0] $end
$var wire 32 ,# RDdata_i [31:0] $end
$var wire 5 -# RSaddr_i [4:0] $end
$var wire 32 .# RSdata_o [31:0] $end
$var wire 5 /# RTaddr_i [4:0] $end
$var wire 32 0# RTdata_o [31:0] $end
$var wire 1 1# RegWrite_i $end
$var wire 1 ! clk_i $end
$var wire 1 " rst_i $end
$upscope $end
$scope module SL1 $end
$var wire 32 2# data_i [31:0] $end
$var wire 32 3# data_o [31:0] $end
$upscope $end
$scope module alu $end
$var wire 4 4# ALU_control [3:0] $end
$var wire 1 " rst_n $end
$var wire 32 5# src1 [31:0] $end
$var wire 32 6# src2 [31:0] $end
$var wire 1 7# Zero $end
$var reg 32 8# result [31:0] $end
$var reg 1 c zero $end
$upscope $end
$upscope $end
$upscope $end
$enddefinitions $end
#0
$dumpvars
b0 8#
17#
b0 6#
b0 5#
b10 4#
bx0 3#
bx 2#
01#
b0 0#
b0 /#
b0 .#
b0 -#
b0 ,#
b0 +#
b100 *#
b100 )#
b0 (#
b0 '#
b100 &#
b0 %#
0$#
b0 ##
b0 "#
b0 !#
b0 ~"
b0 }"
b0 |"
b0 {"
b0 z"
b100 y"
b100 x"
bx w"
b0 v"
0u"
b0 t"
b0 s"
b0 r"
b0 q"
b0 p"
b0 o"
b0 n"
b0 m"
b0 l"
b0 k"
b0 j"
b0 i"
b0 h"
b0 g"
0f"
b0 e"
b0 d"
b0 c"
b0 b"
b0 a"
b0 `"
b0 _"
b0 ^"
b0 ]"
b0 \"
b0 ["
bx Z"
b0 Y"
b100000 X"
b0 W"
b100000000000000011101111 V"
b0 U"
b0 T"
b0 S"
b0 R"
b100000000000000011101111 Q"
b100 P"
b0 O"
b0 N"
b0 M"
b0 L"
b0 K"
b0 J"
b0 I"
b0 H"
b0 G"
b0 F"
b0 E"
b0 D"
b0 C"
b0 B"
b0 A"
b0 @"
b0 ?"
bx >"
b0 ="
b0 <"
b0 ;"
b0 :"
b0 9"
b0 8"
b0 7"
b0 6"
b0 5"
04"
b0 3"
b0 2"
b0 1"
b0 0"
b0 /"
0."
0-"
b0 ,"
b0 +"
b0 *"
b0 )"
b0 ("
b0 '"
b0 &"
b0 %"
b0 $"
b0 #"
b0 ""
b0 !"
b0 ~
b0 }
b0 |
0{
0z
b0 y
b0 x
b0 w
b10000000 v
b0 u
b0 t
b0 s
0r
0q
b0 p
bx0 o
bx n
b10 m
b0 l
b0 k
b0 j
b0 i
0h
b0 g
b0 f
b0 e
b10 d
xc
0b
1a
b0 `
b0 _
b0 ^
b0 ]
b0 \
b0 [
b0 Z
b0 Y
0X
b0 W
b0 V
b0 U
b0 T
b0 S
b0 R
b0 Q
b0 P
b0 O
b0 N
b0 M
b0 L
b0 K
b0 J
b0 I
b0 H
b0 G
1F
bx E
0D
b0 C
b0 B
b0 A
b0 @
b0 ?
0>
b0 =
b0 <
b0 ;
b0 :
b0 9
08
07
b100 6
bx 5
b100 4
b0 3
12
b0 1
b0 0
0/
bx0 .
b0 -
0,
0+
b100000000000000011101111 *
b0 )
0(
0'
b100 &
0%
b10000000000000000000000000000011 $
b0 #
0"
0!
$end
#25000
b1 #
1!
#50000
0!
1"
#75000
b1001 9
b1001 A"
b1001 !#
1%
1'
1D
b1001 -
b1001 |"
1/
b1000 5
b1000 n
b1000 w"
b1000 .
b1000 o
b1000 3#
b1000 4
b1000 x"
b1000 &#
b1101111 w
b1000 9"
b1 :"
b1000 /#
b1000 6"
b100 E
b100 >"
b100 Z"
b100 2#
b1000 6
b1000 P"
b1000 y"
b1000 *#
b10100100000001000010011 *
b10100100000001000010011 Q"
b10100100000001000010011 V"
b100 3
b100 R"
b100 W"
b100 '#
b100 (#
b100 H
b100 <"
b100 U"
b100000000000000011101111 I
b100000000000000011101111 x
b100000000000000011101111 ="
b100000000000000011101111 T"
b100000000000000011101111 Y"
bx T
bx M"
bx e"
xX
b10 #
1!
#100000
0!
#125000
b0 9
b0 A"
b0 !#
0%
0'
0D
b0 -
b0 |"
0/
b0 w
b0 9"
b0 :"
b0 /#
b0 6"
b1100 4
b1100 x"
b1100 &#
b1000 M
b1000 0"
b1000 G"
b100 P
b100 }
b100 O"
b1 O
b1 ""
b1 7"
b1 I"
b100 T
b100 M"
b100 e"
b1001 J
b1001 #"
b1001 H"
b100000000000000011101111 R
b100000000000000011101111 ~
b100000000000000011101111 N"
b1000 H
b1000 <"
b1000 U"
b0 I
b0 x
b0 ="
b0 T"
b0 Y"
b1100 5
b1100 n
b1100 w"
b100 G
b100 p
b100 S"
b1100 6
b1100 P"
b1100 y"
b1100 *#
b10100011000000110010011 *
b10100011000000110010011 Q"
b10100011000000110010011 V"
b1000 3
b1000 R"
b1000 W"
b1000 '#
b1000 (#
b11 #
1!
#150000
0!
#175000
b101 ;
b101 C"
b101 }"
b1110 9
b1110 A"
b1110 !#
b10 j
b10 y
b101 z"
1h
1+
1,
1z
b1110 -
b1110 |"
1/
b1010 .
b1010 o
b1010 3#
b10000 4
b10000 x"
b10000 &#
b10011 w
b101 9"
b11 8"
b11 :"
b101 /#
b11 -#
b101 6"
b11 5"
b101 E
b101 >"
b101 Z"
b101 2#
1-"
b10000 6
b10000 P"
b10000 y"
b10000 *#
b0 *
b0 Q"
b0 V"
b1100 3
b1100 R"
b1100 W"
b1100 '#
b1100 (#
b1100 H
b1100 <"
b1100 U"
b10100011000000110010011 I
b10100011000000110010011 x
b10100011000000110010011 ="
b10100011000000110010011 T"
b10100011000000110010011 Y"
b10010 5
b10010 n
b10010 w"
b1000 G
b1000 p
b1000 S"
b0 M
b0 0"
b0 G"
b1000 P
b1000 }
b1000 O"
b0 O
b0 ""
b0 7"
b0 I"
b0 J
b0 #"
b0 H"
b0 R
b0 ~
b0 N"
b100 \
b100 *"
b100 _"
b1 [
b1 '"
b1 ,"
b1 ]"
b1001 Y
b1001 &"
b1001 \"
b100000000000000011101111 ^
b100000000000000011101111 )"
b100 #
1!
#200000
0!
#225000
07#
b101 i
b101 !"
b101 8#
b0 ;
b0 C"
b0 }"
b0 9
b0 A"
b0 !#
b101 f
b101 g"
b101 6#
b0 j
b0 y
b0 z"
0h
0+
0,
0z
b0 -
b0 |"
0/
0-"
b10 k
1f"
b0 w
b0 9"
b0 8"
b0 :"
b0 /#
b0 -#
b0 6"
b0 5"
b10100 4
b10100 x"
b10100 &#
b1000 \
b1000 *"
b1000 _"
b0 [
b0 '"
b0 ,"
b0 ]"
b0 Y
b0 &"
b0 \"
b0 ^
b0 )"
b101 M
b101 0"
b101 G"
b11 N
b11 1"
b11 F"
b1100 P
b1100 }
b1100 O"
b11 O
b11 ""
b11 7"
b11 I"
b101 T
b101 M"
b101 e"
b101 U
b101 D"
b1110 J
b1110 #"
b1110 H"
b10100011000000110010011 R
b10100011000000110010011 ~
b10100011000000110010011 N"
b10000 H
b10000 <"
b10000 U"
b0 I
b0 x
b0 ="
b0 T"
b0 Y"
b10110 5
b10110 n
b10110 w"
b1100 G
b1100 p
b1100 S"
b10100 6
b10100 P"
b10100 y"
b10100 *#
b10000 3
b10000 R"
b10000 W"
b10000 '#
b10000 (#
b100 =
b100 l"
b100 q"
b100 %#
b100 ,#
1$#
1."
11#
b101 #
b100 A
b100 d"
b100 ##
b1 @
b1 /"
b1 b"
b1 +#
b1001 ?
b1001 a"
1!
#250000
0!
#275000
17#
b0 i
b0 !"
b0 8#
b0 f
b0 g"
b0 6#
b11000 4
b11000 x"
b11000 &#
b0 k
0f"
1-"
b11000 6
b11000 P"
b11000 y"
b11000 *#
b10100 3
b10100 R"
b10100 W"
b10100 '#
b10100 (#
b10100 H
b10100 <"
b10100 U"
b11010 5
b11010 n
b11010 w"
b10000 G
b10000 p
b10000 S"
b0 M
b0 0"
b0 G"
b0 N
b0 1"
b0 F"
b10000 P
b10000 }
b10000 O"
b0 O
b0 ""
b0 7"
b0 I"
b0 U
b0 D"
b0 J
b0 #"
b0 H"
b0 R
b0 ~
b0 N"
b1100 \
b1100 *"
b1100 _"
b11 [
b11 '"
b11 ,"
b11 ]"
b101 _
b101 u
b101 ("
b101 ^"
b101 j"
b101 o"
b1110 Y
b1110 &"
b1110 \"
b10100011000000110010011 ^
b10100011000000110010011 )"
b0 =
b0 l"
b0 q"
b0 %#
b0 ,#
0$#
0."
01#
b110 #
b1000 A
b1000 d"
b1000 ##
b0 @
b0 /"
b0 b"
b0 +#
b0 ?
b0 a"
1!
#300000
0!
#325000
0-"
b11100 4
b11100 x"
b11100 &#
b10000 \
b10000 *"
b10000 _"
b0 [
b0 '"
b0 ,"
b0 ]"
b0 _
b0 u
b0 ("
b0 ^"
b0 j"
b0 o"
b0 Y
b0 &"
b0 \"
b0 ^
b0 )"
b10100 P
b10100 }
b10100 O"
b11000 H
b11000 <"
b11000 U"
b11110 5
b11110 n
b11110 w"
b10100 G
b10100 p
b10100 S"
b11100 6
b11100 P"
b11100 y"
b11100 *#
b11000 3
b11000 R"
b11000 W"
b11000 '#
b11000 (#
b101 =
b101 l"
b101 q"
b101 %#
b101 ,#
b101 <
b101 v"
b101 "#
1u"
1."
11#
b111 #
b1100 A
b1100 d"
b1100 ##
b11 @
b11 /"
b11 b"
b11 +#
b101 C
b101 c"
b101 t"
b1110 ?
b1110 a"
1!
#350000
0!
#375000
b100000 4
b100000 x"
b100000 &#
b100000 6
b100000 P"
b100000 y"
b100000 *#
b11100 3
b11100 R"
b11100 W"
b11100 '#
b11100 (#
b11100 H
b11100 <"
b11100 U"
b100010 5
b100010 n
b100010 w"
b11000 G
b11000 p
b11000 S"
b11000 P
b11000 }
b11000 O"
b10100 \
b10100 *"
b10100 _"
b0 =
b0 l"
b0 q"
b0 %#
b0 ,#
b0 <
b0 v"
b0 "#
0u"
0."
01#
b1000 #
b10000 A
b10000 d"
b10000 ##
b0 @
b0 /"
b0 b"
b0 +#
b0 C
b0 c"
b0 t"
b0 ?
b0 a"
1!
#400000
0!
#425000
b100100 4
b100100 x"
b100100 &#
b11000 \
b11000 *"
b11000 _"
b11100 P
b11100 }
b11100 O"
b100000 H
b100000 <"
b100000 U"
b100110 5
b100110 n
b100110 w"
b11100 G
b11100 p
b11100 S"
b100100 6
b100100 P"
b100100 y"
b100100 *#
b100000 3
b100000 R"
b100000 W"
b100000 '#
b100000 (#
b1001 #
b10100 A
b10100 d"
b10100 ##
1!
#450000
0!
#475000
b101000 4
b101000 x"
b101000 &#
b101000 6
b101000 P"
b101000 y"
b101000 *#
b100100 3
b100100 R"
b100100 W"
b100100 '#
b100100 (#
b100100 H
b100100 <"
b100100 U"
b101010 5
b101010 n
b101010 w"
b100000 G
b100000 p
b100000 S"
b100000 P
b100000 }
b100000 O"
b11100 \
b11100 *"
b11100 _"
b1010 #
b11000 A
b11000 d"
b11000 ##
1!
#500000
0!
#525000
b101100 4
b101100 x"
b101100 &#
b100000 \
b100000 *"
b100000 _"
b100100 P
b100100 }
b100100 O"
b101000 H
b101000 <"
b101000 U"
b101110 5
b101110 n
b101110 w"
b100100 G
b100100 p
b100100 S"
b101100 6
b101100 P"
b101100 y"
b101100 *#
b101000 3
b101000 R"
b101000 W"
b101000 '#
b101000 (#
b1011 #
b11100 A
b11100 d"
b11100 ##
1!
#550000
0!
#575000
b110000 4
b110000 x"
b110000 &#
b110000 6
b110000 P"
b110000 y"
b110000 *#
b101100 3
b101100 R"
b101100 W"
b101100 '#
b101100 (#
b101100 H
b101100 <"
b101100 U"
b110010 5
b110010 n
b110010 w"
b101000 G
b101000 p
b101000 S"
b101000 P
b101000 }
b101000 O"
b100100 \
b100100 *"
b100100 _"
b1100 #
b100000 A
b100000 d"
b100000 ##
1!
#600000
0!
#625000
b110100 4
b110100 x"
b110100 &#
b101000 \
b101000 *"
b101000 _"
b101100 P
b101100 }
b101100 O"
b110000 H
b110000 <"
b110000 U"
b110110 5
b110110 n
b110110 w"
b101100 G
b101100 p
b101100 S"
b110100 6
b110100 P"
b110100 y"
b110100 *#
b110000 3
b110000 R"
b110000 W"
b110000 '#
b110000 (#
b1101 #
b100100 A
b100100 d"
b100100 ##
1!
#650000
0!
#675000
b111000 4
b111000 x"
b111000 &#
b111000 6
b111000 P"
b111000 y"
b111000 *#
b110100 3
b110100 R"
b110100 W"
b110100 '#
b110100 (#
b110100 H
b110100 <"
b110100 U"
b111010 5
b111010 n
b111010 w"
b110000 G
b110000 p
b110000 S"
b110000 P
b110000 }
b110000 O"
b101100 \
b101100 *"
b101100 _"
b1110 #
b101000 A
b101000 d"
b101000 ##
1!
#700000
0!
#725000
b111100 4
b111100 x"
b111100 &#
b110000 \
b110000 *"
b110000 _"
b110100 P
b110100 }
b110100 O"
b111000 H
b111000 <"
b111000 U"
b111110 5
b111110 n
b111110 w"
b110100 G
b110100 p
b110100 S"
b111100 6
b111100 P"
b111100 y"
b111100 *#
b111000 3
b111000 R"
b111000 W"
b111000 '#
b111000 (#
b1111 #
b101100 A
b101100 d"
b101100 ##
1!
#750000
0!
#775000
b1000000 4
b1000000 x"
b1000000 &#
b1000000 6
b1000000 P"
b1000000 y"
b1000000 *#
b111100 3
b111100 R"
b111100 W"
b111100 '#
b111100 (#
b111100 H
b111100 <"
b111100 U"
b1000010 5
b1000010 n
b1000010 w"
b111000 G
b111000 p
b111000 S"
b111000 P
b111000 }
b111000 O"
b110100 \
b110100 *"
b110100 _"
b10000 #
b110000 A
b110000 d"
b110000 ##
1!
#800000
0!
#825000
b1000100 4
b1000100 x"
b1000100 &#
b111000 \
b111000 *"
b111000 _"
b111100 P
b111100 }
b111100 O"
b1000000 H
b1000000 <"
b1000000 U"
b1000110 5
b1000110 n
b1000110 w"
b111100 G
b111100 p
b111100 S"
b1000100 6
b1000100 P"
b1000100 y"
b1000100 *#
b1000000 3
b1000000 R"
b1000000 W"
b1000000 '#
b1000000 (#
b10001 #
b110100 A
b110100 d"
b110100 ##
1!
#850000
0!
#875000
b1001000 4
b1001000 x"
b1001000 &#
b1001000 6
b1001000 P"
b1001000 y"
b1001000 *#
b1000100 3
b1000100 R"
b1000100 W"
b1000100 '#
b1000100 (#
b1000100 H
b1000100 <"
b1000100 U"
b1001010 5
b1001010 n
b1001010 w"
b1000000 G
b1000000 p
b1000000 S"
b1000000 P
b1000000 }
b1000000 O"
b111100 \
b111100 *"
b111100 _"
b10010 #
b111000 A
b111000 d"
b111000 ##
1!
#900000
0!
#925000
b1001100 4
b1001100 x"
b1001100 &#
b1000000 \
b1000000 *"
b1000000 _"
b1000100 P
b1000100 }
b1000100 O"
b1001000 H
b1001000 <"
b1001000 U"
b1001110 5
b1001110 n
b1001110 w"
b1000100 G
b1000100 p
b1000100 S"
b1001100 6
b1001100 P"
b1001100 y"
b1001100 *#
b1001000 3
b1001000 R"
b1001000 W"
b1001000 '#
b1001000 (#
b10011 #
b111100 A
b111100 d"
b111100 ##
1!
#950000
0!
#975000
b1010000 4
b1010000 x"
b1010000 &#
b1010000 6
b1010000 P"
b1010000 y"
b1010000 *#
b1001100 3
b1001100 R"
b1001100 W"
b1001100 '#
b1001100 (#
b1001100 H
b1001100 <"
b1001100 U"
b1010010 5
b1010010 n
b1010010 w"
b1001000 G
b1001000 p
b1001000 S"
b1001000 P
b1001000 }
b1001000 O"
b1000100 \
b1000100 *"
b1000100 _"
b10100 #
b1000000 A
b1000000 d"
b1000000 ##
1!
#1000000
0!
#1025000
b1010100 4
b1010100 x"
b1010100 &#
b1001000 \
b1001000 *"
b1001000 _"
b1001100 P
b1001100 }
b1001100 O"
b1010000 H
b1010000 <"
b1010000 U"
b1010110 5
b1010110 n
b1010110 w"
b1001100 G
b1001100 p
b1001100 S"
b1010100 6
b1010100 P"
b1010100 y"
b1010100 *#
b1010000 3
b1010000 R"
b1010000 W"
b1010000 '#
b1010000 (#
b10101 #
b1000100 A
b1000100 d"
b1000100 ##
1!
#1050000
0!
#1075000
b1011000 4
b1011000 x"
b1011000 &#
b1011000 6
b1011000 P"
b1011000 y"
b1011000 *#
b1010100 3
b1010100 R"
b1010100 W"
b1010100 '#
b1010100 (#
b1010100 H
b1010100 <"
b1010100 U"
b1011010 5
b1011010 n
b1011010 w"
b1010000 G
b1010000 p
b1010000 S"
b1010000 P
b1010000 }
b1010000 O"
b1001100 \
b1001100 *"
b1001100 _"
b10110 #
b1001000 A
b1001000 d"
b1001000 ##
1!
#1100000
0!
#1125000
b1011100 4
b1011100 x"
b1011100 &#
b1010000 \
b1010000 *"
b1010000 _"
b1010100 P
b1010100 }
b1010100 O"
b1011000 H
b1011000 <"
b1011000 U"
b1011110 5
b1011110 n
b1011110 w"
b1010100 G
b1010100 p
b1010100 S"
b1011100 6
b1011100 P"
b1011100 y"
b1011100 *#
b1011000 3
b1011000 R"
b1011000 W"
b1011000 '#
b1011000 (#
b10111 #
b1001100 A
b1001100 d"
b1001100 ##
1!
#1150000
0!
#1175000
b1100000 4
b1100000 x"
b1100000 &#
b1100000 6
b1100000 P"
b1100000 y"
b1100000 *#
b1011100 3
b1011100 R"
b1011100 W"
b1011100 '#
b1011100 (#
b1011100 H
b1011100 <"
b1011100 U"
b1100010 5
b1100010 n
b1100010 w"
b1011000 G
b1011000 p
b1011000 S"
b1011000 P
b1011000 }
b1011000 O"
b1010100 \
b1010100 *"
b1010100 _"
b11000 #
b1010000 A
b1010000 d"
b1010000 ##
1!
#1200000
0!
#1225000
b1100100 4
b1100100 x"
b1100100 &#
b1011000 \
b1011000 *"
b1011000 _"
b1011100 P
b1011100 }
b1011100 O"
b1100000 H
b1100000 <"
b1100000 U"
b1100110 5
b1100110 n
b1100110 w"
b1011100 G
b1011100 p
b1011100 S"
b1100100 6
b1100100 P"
b1100100 y"
b1100100 *#
b1100000 3
b1100000 R"
b1100000 W"
b1100000 '#
b1100000 (#
b11001 #
b1010100 A
b1010100 d"
b1010100 ##
1!
#1250000
0!
#1275000
b1101000 4
b1101000 x"
b1101000 &#
b1101000 6
b1101000 P"
b1101000 y"
b1101000 *#
b1100100 3
b1100100 R"
b1100100 W"
b1100100 '#
b1100100 (#
b1100100 H
b1100100 <"
b1100100 U"
b1101010 5
b1101010 n
b1101010 w"
b1100000 G
b1100000 p
b1100000 S"
b1100000 P
b1100000 }
b1100000 O"
b1011100 \
b1011100 *"
b1011100 _"
b11010 #
b1011000 A
b1011000 d"
b1011000 ##
1!
#1300000
0!
